Trabalhando com dados amostrais
…
Principais funes

Para juntar tabelas, usar inner_join, left_join, anti_join, etc.

Visualizando

Exemplo de inner join:

decisoes %>% 
  filter(data_registro == "18/01/2018", !is.na(id_decisao)) %>% 
  select(id_decisao, n_processo) %>% 
  inner_join(processos, "n_processo")

## # A tibble: 169 x 5
##    id_decisao n_processo                infos             partes   results
##    <chr>      <chr>                     <list>            <list>   <list> 
##  1 11109089   0003779-93.2015.8.26.0597 <tibble [14  2]> <tibble <tibbl
##  2 11109088   3001293-25.2013.8.26.0510 <tibble [13  2]> <tibble <tibbl
##  3 11108246   0063566-45.2015.8.26.0050 <tibble [14  2]> <tibble <tibbl
##  4 11108245   0003528-84.2015.8.26.0400 <tibble [14  2]> <tibble <tibbl
##  5 11109087   0008470-76.2015.8.26.0072 <tibble [14  2]> <tibble <tibbl
##  6 11109086   0013767-62.2012.8.26.0624 <tibble [14  2]> <tibble <tibbl
##  7 11109085   3019561-54.2013.8.26.0405 <tibble [14  2]> <tibble <tibbl
##  8 11108348   0003072-91.2017.8.26.0521 <tibble [11  2]> <tibble <tibbl
##  9 11108725   0009578-41.2017.8.26.0050 <tibble [12  2]> <tibble <tibbl
## 10 11108347   3001116-52.2013.8.26.0028 <tibble [12  2]> <tibble <tibbl
## # ... with 159 more rows

Exemplo de right join:

decisoes %>% 
  filter(data_registro == "18/01/2018", !is.na(id_decisao)) %>% 
  select(id_decisao, n_processo) %>% 
  right_join(processos, "n_processo")

## # A tibble: 11,638 x 5
##    id_decisao n_processo                infos             partes   results
##    <chr>      <chr>                     <list>            <list>   <list> 
##  1 <NA>       0000003-71.2016.8.26.0073 <tibble [11  2]> <tibble <tibbl
##  2 <NA>       0000004-09.2017.8.26.0142 <tibble [12  2]> <tibble <tibbl
##  3 <NA>       0000004-34.2016.8.26.0630 <tibble [12  2]> <tibble <tibbl
##  4 <NA>       0000004-59.2015.8.26.0633 <tibble [14  2]> <tibble <tibbl
##  5 <NA>       0000004-62.2014.8.26.0611 <tibble [14  2]> <tibble <tibbl
##  6 <NA>       0000006-04.2017.8.26.0651 <tibble [12  2]> <tibble <tibbl
##  7 <NA>       0000006-06.2015.8.26.0576 <tibble [12  2]> <tibble <tibbl
##  8 <NA>       0000006-63.2017.8.26.0599 <tibble [12  2]> <tibble <tibbl
##  9 <NA>       0000006-74.2010.8.26.0125 <tibble [14  2]> <tibble <tibbl
## 10 <NA>       0000006-82.2016.8.26.0604 <tibble [11  2]> <tibble <tibbl
## # ... with 11,628 more rows
…
Limpeza

Duplicatas

Para retirar duplicatas, utilizar distinct. Ele considera apenas a primeira linha em que encontra um padro para as combinaes de variveis escolhidas e descarta as demais.

decisoes %>% 
  distinct(municipio)

## # A tibble: 315 x 1
##    municipio          
##    <chr>              
##  1 Cosmpolis         
##  2 So Paulo          
##  3 Ribeiro Preto     
##  4 Araatuba          
##  5 Presidente Prudente
##  6 Bertioga           
##  7 Taubat            
##  8 Aparecida          
##  9 Jandira            
## 10 Flrida Paulista   
## # ... with 305 more rows

Por coluna

Para manter as demais colunas, use .keep_all=:

decisoes %>%
  distinct(municipio, camara, 
           .keep_all = TRUE)

## # A tibble: 2,760 x 9
##    id_decisao n_processo  classe_assunto    municipio camara  data_decisao
##    <chr>      <chr>       <chr>             <chr>     <chr>   <chr>       
##  1 11094999   0057003-20 Habeas Corpus /  Cosmpol 3 Cm 19/12/2017  
##  2 11093733   0052762-03 Habeas Corpus /  So Paulo 3 Cm 19/12/2017  
##  3 11093677   0055169-79 Habeas Corpus /  Ribeiro 3 Cm 19/12/2017  
##  4 11093270   9000580-82 Agravo de Execu Araatuba 8 Cm 14/12/2017  
##  5 11093374   0052938-79 Mandado de Segur So Paulo 8 Cm 14/12/2017  
##  6 11093320   9000723-79 Agravo de Execu Presiden 8 Cm 14/12/2017  
##  7 11091506   0003276-86 Apelao / Trfi Bertioga  8 Cm 14/12/2017  
##  8 11093326   9000298-11 Agravo de Execu Taubat   8 Cm 14/12/2017  
##  9 11092475   0004653-39 Apelao / Trfi Aparecida 8 Cm 14/12/2017  
## 10 11093773   2221930-66 Habeas Corpus /  Jandira   3 Cm 19/12/2017  
## # ... with 2,750 more rows, and 3 more variables: data_registro <chr>,
## #   juiz <chr>, txt_decisao <chr>

janitor::get_dupes()

Use janitor::get_dupes() para averiguar os casos em que h repetio de combinaes de colunas.

decisoes %>% 
  get_dupes(n_processo)

## # A tibble: 114 x 10
##    n_processo   dupe_count id_decisao classe_assunto     municipio camara 
##    <chr>             <int> <chr>      <chr>              <chr>     <chr>  
##  1 0000276-86.          2 11051087   Apelao / Trfic Itaporan 2 Cm
##  2 0000276-86.          2 11093633   Embargos de Decla Itaporan 2 Cm
##  3 0000358-10.          2 11108278   Embargos de Decla So Paulo 2 Cm
##  4 0000358-10.          2 11028129   Apelao / Roubo  So Paulo 2 Cm
##  5 0002236-18.          2 11041351   Apelao / Contra Nhandeara 1 Cm
##  6 0002236-18.          2 11041352   Apelao / Contra Nhandeara 1 Cm
##  7 0004453-20.          2 11041132   Apelao / Trfic So Paulo 2 Cm
##  8 0004453-20.          2 11093635   Embargos de Decla So Paulo 2 Cm
##  9 0004636-51.          3 11032094   Apelao / Trfic Olmpia   2 Cm
## 10 0004636-51.          3 11032093   Apelao / Trfic Olmpia   2 Cm
## # ... with 104 more rows, and 4 more variables: data_decisao <chr>,
## #   data_registro <chr>, juiz <chr>, txt_decisao <chr>
…
